<!DOCTYPE html>
<html lang="en">
<head>
    <!-- Meta Information -->
    <meta charset="utf-8">
    <meta http-equiv="X-UA-Compatible" content="IE=edge">
    <meta name="viewport" content="width=device-width, initial-scale=1">

    
    <title>THE_HOLY_CODA_OF_THE_MATRIX.pdf - DocDroid</title>



    <link rel="shortcut icon" href="/images/favicon.png">




<link rel="canonical" href="https://www.docdroid.net/sQTUy5f/the-holy-coda-of-the-matrix.pdf">
<link rel="shortlink" href="http://docdro.id/sQTUy5f">
<meta name="twitter:card" content="summary_large_image">
<meta name="twitter:image" content="https://www.docdroid.net/thumbnail/sQTUy5f/1500,750/the-holy-coda-of-the-matrix.jpg">
<meta property="og:type" content="article"/>
<meta property="og:image" content="https://www.docdroid.net/thumbnail/sQTUy5f/1500,785/the-holy-coda-of-the-matrix.jpg"> <!-- facebook -->
<meta property="og:image" content="https://www.docdroid.net/thumbnail/sQTUy5f/1500,1500/the-holy-coda-of-the-matrix.jpg"> <!-- square -->
<meta property="og:image" content="https://www.docdroid.net/file/view/sQTUy5f/the-holy-coda-of-the-matrix.jpg"> <!-- original -->
<link rel="alternate" type="application/json+oembed"
      href="https://www.docdroid.net/api/oembed?url=https%3A%2F%2Fwww.docdroid.net%2FsQTUy5f%2Fthe-holy-coda-of-the-matrix.pdf">
<meta name="description" content="View and download THE_HOLY_CODA_OF_THE_MATRIX.pdf on DocDroid">
<meta name="twitter:title" content="THE_HOLY_CODA_OF_THE_MATRIX.pdf">
<meta name="twitter:description" content="View and download THE_HOLY_CODA_OF_THE_MATRIX.pdf on DocDroid">
<meta property="og:title" content="THE_HOLY_CODA_OF_THE_MATRIX.pdf">
<meta property="og:description" content="View and download THE_HOLY_CODA_OF_THE_MATRIX.pdf on DocDroid">
<meta property="og:url" content="https://www.docdroid.net/sQTUy5f/the-holy-coda-of-the-matrix.pdf">
<meta name="viewport" content="width=device-width, initial-scale=1, maximum-scale=1">

<!-- CSS -->
    <link href="/css/app.css?id=66a9f863726712dc276b" rel="stylesheet">

    <meta property="fb:app_id" content="450042191753217" />
    <meta name="twitter:site" content="@docdroid_" />
    <meta name="wot-verification" content="d00a3eca2520f263d354"/>


    <!-- Global Data -->
    <script>
        window.Spark = {"braintreeMerchantId":null,"braintreeToken":null,"cardUpFront":false,"collectsBillingAddress":true,"collectsEuropeanVat":true,"createsAdditionalTeams":true,"csrfToken":"DOdJER8tf9EjFMBUuNrRNSMeLMXbMFuvISTMi1PR","currencySymbol":"$","env":"production","roles":[],"state":{"user":null,"teams":[],"currentTeam":null},"stripeKey":"pk_live_e4QZlwMhPFKGIwXdgGYZsZlU","teamString":"team","pluralTeamString":"teams","userId":null,"usesApi":true,"usesBraintree":false,"usesTeams":false,"usesStripe":true};

        window.app = {
            env: 'production',
            routeName: 'viewDocument',
            isLoggedIn: false,
            isSubscribed: false,
            apiUrl: '/api'
        };
    </script>

</head>
<body class="dark">



<div id="app">



<!-- Main Content -->






    <nav class="navbar navbar-fixed-top  bg-transparent  navbar-flex hidden-print navbar-shadow">

        <div class="navbar-header hidden-xs hidden-sm">

                            <div class="navbar-branding">
    <a class="navbar-brand" href="https://www.docdroid.net"> <img src="https://www.docdroid.net/images/logo_navbar_dark.png" alt="DocDroid">
    </a>
</div>                    </div>


        <div class="nav navbar-nav navbar-left navbar-flex-1">

            <h1 v-pre>
                               THE_HOLY_CODA_OF_THE_MATRIX.pdf
            </h1>
        </div>


        <ul class="nav navbar-nav navbar-right">


                            <li class="hidden-xs">
                    <a  @click.prevent="$refs.view.showReport()" href="">
                        <span class="fa fa-ban mr5"></span>
                        Report                    </a>
                </li>
            

            
            <li class="dropdown shareDropdown">
                <a href="#" class="dropdown-toggle" data-toggle="dropdown"> <span class="fa fa-share mr5"></span>
                    <span class="hidden-xs">Share</span>
                    <span class="caret caret-tp hidden-xs"></span>
                </a>
                <ul class="dropdown-menu dropdown-persist pb5 w250" role="menu">

                    <li class="dropdown-header admin-form pl10 pr10 mb5">


                        <label class="field prepend-icon">
                            <input type="text" id="url" @focus="$event.target.select()" class="gui-input linkInput"
                                   value="http://docdro.id/sQTUy5f"
                                   readonly="readonly">
                            <label for="url" class="field-icon">
                                <i class="fa fa-link"></i>
                            </label>
                        </label>

                    </li>


                    <li class="pl5">
                        <a href="https://www.docdroid.net/share/sQTUy5f/twitter" rel="nofollow" target="_blank" class="fw600  animated animated-short fadeInDown"
                           ga-on="click"
                           ga-hit-type="social"
                           ga-social-network="Twitter"
                           ga-social-action="tweet"
                        >
                            <span class="fa fa-twitter mr5"></span>
                            Twitter
                        </a>
                    </li>
                    <li class="pl5">
                        <a href="https://www.docdroid.net/share/sQTUy5f/facebook" rel="nofollow" target="_blank" class="fw600  animated animated-short fadeInDown"
                           ga-on="click"
                           ga-hit-type="social"
                           ga-social-network="Facebook"
                           ga-social-action="share"
                        >
                            <span class="fa fa-facebook-square mr5"></span>
                            Facebook
                        </a>
                    </li>


                    
                    <li class="divider"></li>


                    <li class="pl5">
                        <a rel="nofollow" @click="$refs.view.showEmbed()"
                           class="magnific fw600  animated animated-short fadeInDown">
                            <span class="fa fa-code mr5"></span>
                            Embed                        </a>
                    </li>

                    

                </ul>
            </li>

                

                
            <li class="">
                                    <a href="https://www.docdroid.net/file/download/sQTUy5f/the-holy-coda-of-the-matrix.pdf"
                       class="downloadLink"
                       ga-on="click"
                       ga-event-category="Downloads"
                       ga-event-action="pdf"
                    >
                                                        <span class="fa fa-download mr5"></span>
                                <span class="hidden-xs">Download</span>
                                                            </a>
                                        </li>

                

            
            <li></li>

        </ul>


    </nav>


    <document-view document-json='{"id":"sQTUy5f","filename":"THE_HOLY_CODA_OF_THE_MATRIX.pdf","name":"THE_HOLY_CODA_OF_THE_MATRIX","ext":"pdf","type":"document","status":"ok","visibility":"public","allow_download":true,"allow_search_engines_index":true,"allow_embed":"any","links":[{"rel":"self","uri":"https:\/\/www.docdroid.net\/api\/document\/sQTUy5f"},{"rel":"link","uri":"https:\/\/www.docdroid.net\/sQTUy5f\/the-holy-coda-of-the-matrix.pdf"},{"rel":"shortlink","uri":"http:\/\/docdro.id\/sQTUy5f"},{"rel":"download","type":"application\/pdf","uri":"https:\/\/www.docdroid.net\/file\/download\/sQTUy5f\/the-holy-coda-of-the-matrix.pdf?e=1535388373\u0026s=8bd7ea48062168779ce4aeb9e494e5dc"},{"rel":"view","type":"application\/pdf","uri":"https:\/\/www.docdroid.net\/file\/view\/sQTUy5f\/the-holy-coda-of-the-matrix.pdf?e=1535388373\u0026s=d3fe168c4bbd9c4d2da22d69d281b00e"},{"rel":"thumbnail","type":"image\/jpeg","uri":"https:\/\/www.docdroid.net\/file\/view\/sQTUy5f\/the-holy-coda-of-the-matrix.jpg"}],"user":{"id":184413}}' viewer="iframe" show-ads="1" show-external-window-link="1" subscribed="" pdfjs-worker="/js/pdfjs-worker.js?id=97faf7bbf21e16a9a903" ref="view" inline-template>





        <section id="content" class=" iframe">



            <document-embed :document="document" ref="embed"></document-embed>
            <document-report :document="document" sitekey="6Lem-icTAAAAAAHqZJpvJKTfeiUlpSC2SwTXfwUc" ref="report"></document-report>


            

            


                <div class="pdfViewerContainer">


                <!--<object data="https://www.docdroid.net/file/view/sQTUy5f/the-holy-coda-of-the-matrix.pdf?e=1535388373&amp;s=d3fe168c4bbd9c4d2da22d69d281b00e" type="application/pdf" tabindex="0">

                </object>-->
                    <iframe src="https://www.docdroid.net/file/view/sQTUy5f/the-holy-coda-of-the-matrix.pdf?e=1535388373&amp;s=d3fe168c4bbd9c4d2da22d69d281b00e" tabindex="0" allowfullscreen></iframe>

                </div>
            





        </section>


    </document-view>

                

<!-- Application Level Modals -->
    </div>


<!-- JavaScript -->




 
<script src="/js/app.js?id=ca1e65d7dcf281359ea5"></script>
        <script async src="//pagead2.googlesyndication.com/pagead/js/adsbygoogle.js"></script>
        

<!-- Fonts -->
<link href='https://fonts.googleapis.com/css?family=Open+Sans:300,400,600,700' rel='stylesheet' type='text/css'>
<link href='https://cdnjs.cloudflare.com/ajax/libs/font-awesome/4.5.0/css/font-awesome.min.css' rel='stylesheet' type='text/css'>


</body>
</html>
