8
38
116
126
306
744
904
909
1208
1549
1709
1835
1939
1973
2117
2210
2646
2827
2977
3158
3637
4447
16940
18393
18667
18810
18871
19022
19099
19302
19611
19965
20255
20719
20914
21662
22030
22241
25096
25802
26046
27488
29581
30997
32782
35027
36448
36999
37651
38346
38570
40092
40343
41215
43950
44120
44507
44922
45829
45835
45945
46129
47381
47598
48231
49085
49720
50110
50144
50207
52984
58271
58455
60102
60143
60394
63460
63667
63760
65410
66728
67150
78577
78595
79005
80662
80787
80849
81525
84336
86846
89805
91268
91878
97273
97446
97784
100590
100690
106872
106873
107411
110501
112001
114468
116355
119260
119290
119389
119459
119691
121203
121204
121325
121507
121628
121649
121721
123657
125314
125351
128169
128945
129428
130047
133495
133930
134676
134970
135746
136464
136495
136496
137391
137837
137903
137908
137921
138950
139355
139356
139369
140680
142506
142596
144473
144481
145041
148471
154112
159398
159984
160606
164891
165128
174153
178127
182330
182673
182809
183175
183226
184068
186065
187299
195040
196878
197833
208753
216583
216590
224358
226036
226249
226258
227631
227651
227688
227692
227794
227803
227847
227865
227883
227896
227939
227962
227980
229169
230576
234358
234518
234930
235985
236060
236249
236535
236563
236644
236779
236886
239027
239264
239320
239516
239527
239532
239872
240029
240051
240073
240106
240107
240176
241739
241807
241901
241937
241979
243096
243752
244276
244881
245206
245338
245802
248058
249931
251101
252688
253287
263145
263161
263165
263168
263181
265230
276080
276676
279361
280080
320948
321097
326965
329622
378088
395027
401305
431797
453960
458054
475820
475873
475964
476220
495687
497911
501885
637053
644489
668088
694400
698634
700712
702958
709687
746080
822102
822170
829540
830677
835665
835837
837855
840973
843320
875929
875950
915959
919637
919708
949664
950427
